Visual Analytics - Take Home Exercise 3
…
ab_vessel_mvmt <- vessel_location %>%
  mutate(time = ymd_hms(time)) %>% 
  mutate(next_time = ymd_hms(next_time)) %>% 
  mutate(end_time = ymd_hms(end_time)) %>% 
  filter(end_time != next_time) 

ab_vessel_mvmt_agg <- ab_vessel_mvmt %>% 
  distinct() %>% 
  group_by(source) %>% 
  summarise(weights = n()) %>%
  arrange(desc(weights))
ab_vessel_mvmt_agg

# A tibble: 22 × 2
   source                  weights
   <chr>                     <int>
 1 City of Paackland          2893
 2 City of South Paackland    2553
 3 City of Lomark             2482
 4 City of Himark             1721
 5 City of Haacklee           1509
 6 Cod Table                  1018
 7 Nav C                       710
 8 Exit East                   646
 9 Wrasse Beds                 592
10 Tuna Shelf                  517
# ℹ 12 more rows
…
